{
  "resources": [
    {
      "name": "AVORD",
      "website": "https://avord.co.uk/testers/",
      "description": "UK penetration testing platform",
      "price": "Free"
    },
    {
      "name": "AntiHACK",
      "website": "https://www.antihack.me/",
      "description": "Singapore bug bounty platform",
      "price": "Free"
    },
    {
      "name": "Bug Bounty Hub",
      "website": "https://bugbountyhub.com/",
      "description": "Bug bounty platform",
      "price": "Free"
    },
    {
      "name": "BugBounty.jp",
      "website": "https://bugbounty.jp/",
      "description": "Japan bug bounty platform",
      "price": "Free"
    },
    {
      "name": "Bugcrowd",
      "website": "https://www.bugcrowd.com/",
      "description": "Bug bounty platform",
      "price": "Free"
    },
    {
      "name": "Bugv",
      "website": "https://bugv.io/",
      "description": "Bug bounty platform",
      "price": "Free"
    },
    {
      "name": "Cobalt.io",
      "website": "https://cobalt.io/",
      "description": "Crowdsourced pentest and bug bounty platform",
      "price": "Free"
    },
    {
      "name": "Crowdswarn",
      "website": "https://www.crowdswarm.io/",
      "description": "Crowdsourced pentest & bug bounty platform",
      "price": "Free"
    },
    {
      "name": "CyberArmyID",
      "website": "https://www.cyberarmy.id",
      "description": "VDP & bug bounty platform",
      "price": "Free"
    },
    {
      "name": "FEDERACY",
      "website": "https://www.federacy.com/",
      "description": "Crowdsourced pentest & bug bounty platform",
      "price": "Free"
    },
    {
      "name": "FireBounty",
      "website": "https://firebounty.com/",
      "description": "Bug bounty program aggregator",
      "price": "Free"
    },
    {
      "name": "HackenProof",
      "website": "https://hackenproof.com/",
      "description": "Bug bounty platform",
      "price": "Free"
    },
    {
      "name": "HackerOne",
      "website": "https://www.hackerone.com/",
      "description": "Bug bounty platform",
      "price": "Free"
    },
    {
      "name": "HackTrophy",
      "website": "https://hacktrophy.com/",
      "description": "Bug bounty platform",
      "price": "Free"
    },
    {
      "name": "huntr",
      "website": "https://huntr.dev",
      "description": "A bug bounty board for securing open-source code.",
      "price": "Free"
    },
    {
      "name": "Immunefi",
      "website": "https://immunefi.com/",
      "description": "Bug bounty platform focused on DeFi (Decentralized Finance), blockchain and smart contract security",
      "price": "Free"
    },
    {
      "name": "Inspectiv",
      "website": "https://www.inspectiv.com/",
      "description": "Bug bounty platform",
      "price": "Free"
    },
    {
      "name": "Intigriti",
      "website": "https://www.intigriti.com/public/",
      "description": "Bug bounty platform",
      "price": "Free"
    },
    {
      "name": "Open Bug Bounty",
      "website": "https://www.openbugbounty.org/",
      "description": "Non-profit bug bounty platform",
      "price": "Free"
    },
    {
      "name": "OpenCIRT",
      "website": "https://opencirt.com/",
      "description": "Open Cyber Incident Response Team; coordinated vulnerability disclosure for softwares without VDP",
      "price": "Free",
      "keywords": "CVD"
    },
    {
      "name": "Plugbounty",
      "website": "https://www.plugbounty.com/",
      "description": "Bug bounty platform for plugins, themes, extensions, libraries",
      "price": "Free"
    },
    {
      "name": "RedStorm",
      "website": "https://www.redstorm.io/",
      "description": "VDP & bug bounty platform",
      "price": "Free"
    },
    {
      "name": "SafeHats",
      "website": "https://safehats.com",
      "description": "Bug bounty platform",
      "price": "Free"
    },
    {
      "name": "ScanTitan",
      "website": "https://scantitan.com/crowdsourced-penetration-testing/",
      "description": "Crowdsourced pentest",
      "price": "Free"
    },
    {
      "name": "SSD Secure Disclosure",
      "website": "https://ssd-disclosure.com/",
      "description": "Rewarded responsible disclosure service",
      "price": "Free"
    },
    {
      "name": "SynAck Red Team",
      "website": "https://www.synack.com/red-team/",
      "description": "Crowdsourced pentest and bug bounty platform",
      "price": "Free"
    },
    {
      "name": "Yes We Hack",
      "website": "https://www.yeswehack.com/",
      "description": "European bug bounty platform based on the legislation and rules in force in european countries",
      "price": "Free"
    },
    {
      "name": "Yogosha",
      "website": "https://www.yogosha.com/",
      "description": "Bug bounty platform",
      "price": "Free"
    },
    {
      "name": "Zero Day Initiative",
      "website": "https://www.zerodayinitiative.com/",
      "description": "Rewarded responsible disclosure service",
      "price": "Free"
    },
    {
      "name": "Zerocopter",
      "website": "https://www.zerocopter.com/",
      "description": "Invite-only and closed bug bounty platform",
      "price": "Free"
    },
    {
      "name": "ZeroDisclo.com",
      "website": "https://zerodisclo.com",
      "description": "Coordinated disclosure platform by YesWeHack",
      "price": "Free"
    }
  ]
}
